…
จากตรงนี้ จะพบว่าที่เราเดาไว้แรก ๆ นั้น ใกล้เคียง ว่า น่าจะเป็น logistic หรือ Gompertz ซึ่ง ก็ไม่ค่อยแตกต่างกันเ้ท่าไหร่นัก แต่กการที่จะตัดสินใจว่าแบบจำลองไหนดี ควรดูกราฟกับค่าที่สังเกตได้ กับ ค่าที่พยากรณ์ได้

Multiple model fitting

จะใช้ fit_multi() ซึ่ง จะต้องทำเป็น long format dataframe ก่อน ดังนั้น จะต้องเรียงข้อมูลใหม่จากเดิม

pepper2 <- pepper %>%
  pivot_longer(2:4, names_to ="treat", values_to = "inc")
pepper2

## # A tibble: 24 x 3
##     time treat   inc
##    <dbl> <chr> <dbl>
##  1     0 trt1  0.08 
##  2     0 trt2  0.001
##  3     0 trt3  0.001
##  4     7 trt1  0.13 
##  5     7 trt2  0.01 
##  6     7 trt3  0.001
##  7    14 trt1  0.78 
##  8    14 trt2  0.09 
##  9    14 trt3  0.01 
## 10    21 trt1  0.92 
## # ... with 14 more rows
…
